v -0.8524135947 0.09034439921 -0.3022421002
vn -0.227244392 0.3046886921 -0.9249458313
v -0.9325369596 0.1258074045 -0.1258143783
vn 0.02384766564 -0.9934737086 0.1115406677
v 0.4600607753 0.05132659525 0.2235985547
vn 0.004519263282 0.9094190001 0.4158564806
v 0.4495233297 0.065325737 0.1625109315
vn 0.06632272899 0.9751008749 0.2116118222
v 0.5315984488 -0.1999745518 -0.02795796283
vn -0.2621791959 -0.4557331204 0.8506287932
v 0.6302702427 -0.03926616162 0.01224168669
vn 0.2356327027 0.620359838 -0.7480847836
v -0.3179235756 0.08095264435 -0.1671755612
vn -0.2097001076 -0.7497981191 0.6275576353
v -0.2419213355 0.1114114895 -0.1906943321
vn 0.19116956 0.8663070202 -0.4614827633
v -0.1852220744 0.0779555738 -0.2183520496
vn 0.2296641469 0.5958035588 -0.769592464
v -0.6033084393 0.1254526973 -0.2595038414
vn 0.1578051895 0.7063639164 -0.6900344491
v -0.7721899748 0.02849642001 -0.3286125362
vn -0.007988994941 0.0732640475 -0.9972805977
v -0.9804475307 0.1391709149 -0.2342368066
vn -0.5766159296 0.5164662004 -0.6330693364
v -0.8974752426 0.1828013957 -0.2092899829
vn -0.2216099799 0.9740427732 -0.04614819214
v 0.5743604898 -0.07974028587 0.01747806743
vn -0.3361652792 -0.4779101908 0.8115385175
v 0.06883403659 0.02563527972 -0.1658222526
vn 0.2487673312 0.3662799597 -0.8966346979
v 0.711668849 -0.1362643391 0.0053741429
vn 0.3497700989 0.04982169345 -0.9355098605
v -0.643601656 0.186653614 -0.1937179267
vn 0.1522021294 0.8734989762 -0.4624219537
v 0.400819242 -0.06488845497 -0.1021204442
vn 0.263784498 0.0632507205 -0.9625056386
v -0.6695671082 -0.03970817104 -0.3086689413
vn -0.2409142107 -0.8184438348 0.5216416717
v -0.0622857362 -0.06058040634 -0.1563858092
vn -0.2710306644 -0.1774707437 0.9460690022
v -0.2624516487 -0.05501898378 -0.2127722055
vn -0.25847435 -0.2259943336 0.9392111301
v 0.8849669695 -0.01558565814 0.2105815262
vn 0.4281876981 0.8994705677 0.08722373098
v 0.8729133606 -0.02296885662 0.1657766104
vn 0.4245737493 0.7874576449 -0.4468193948
v -0.3323031664 0.01015110686 -0.2738566995
vn 0.2015088499 0.0759139061 -0.9765404463
v 0.8806587458 -0.0736836791 0.1168100983
vn 0.5517089963 0.5209820271 -0.6513024569
v 0.9141622186 -0.0749990344 0.2631074488
vn -0.505715251 -0.8599060774 -0.06938012689
v -0.4557755589 0.172662288 -0.05078556016
vn 0.07392735034 0.9756330252 0.2065791637
v 0.1667531133 -0.1695247293 -0.1213161424
vn -0.09573045373 -0.8819662929 0.4614879489
v 0.3332461119 -0.004877676256 0.2648668885
vn -0.2656351924 -0.8034207225 0.5328724384
v -0.4059190452 -0.09969676286 -0.2667422593
vn -0.03814758733 -0.7935202122 -0.6073470116
v 0.3752616644 -0.06207974628 -0.05271665752
vn -0.2648665905 -0.3248640895 0.9079146385
v -0.7671999931 0.204852283 -0.1671447456
vn -0.07755524665 0.9964610338 -0.03241297603
v 0.431109041 -0.006193763111 -0.07924810052
vn 0.3479812443 0.5769650936 -0.7389318943
v 0.04524260014 0.1185014695 -0.01417911239
vn 0.1882549375 0.9480486512 -0.256444633
v 0.881962359 -0.07563690841 0.1835343987
vn -0.4757972956 -0.7373111248 0.4795719385
v 0.745983243 -0.01158046536 0.09405452013
vn 0.3207115531 0.7520383 -0.5758319497
v 0.2715334892 0.03602524102 0.01933933049
vn -0.2012070119 -0.9175902605 0.3428467214
v -0.4396221638 0.06373475492 -0.2780624926
vn 0.1623156518 0.3709485829 -0.914358139
v 0.9747283459 -0.08624517918 0.2153345346
vn 0.8082460165 0.3725109398 -0.4560416639
v 0.5257537365 -0.1465772241 -0.05431424081
vn 0.305934459 -0.04276705906 -0.9510915279
v 0.95135957 -0.1058278531 0.2372923791
vn -0.6332044005 -0.6557166576 0.4112029076
v 0.6022495031 -0.025817452 0.08725488931
vn -0.2831978202 -0.8357660174 0.4704190791
v -0.4729181826 -0.04144430161 -0.2902872562
vn 0.1401053965 -0.07397826016 -0.9873690605
v 0.305783093 -0.001778195146 -0.03375668079
vn -0.2591426671 -0.7063590288 0.6587123871
v 0.5482841134 0.05546774715 0.1768655628
vn 0.1141305417 0.9833517075 0.141399011
v -0.8398762941 0.167023629 -0.1002339572
vn -0.2637246251 0.8761313558 0.4035383463
v 0.4433761239 -0.1699107438 -0.08192475885
vn 0.2508374751 -0.1681542695 -0.9533125162
v -0.1103584543 0.03874339908 -0.1386588514
vn -0.2687368095 -0.7025623918 0.6589283943
v 0.3553524315 0.02442061529 0.2409120947
vn -0.08132975549 0.74864465 0.6579640508
v -0.8930023909 0.1657045782 -0.2551089227
vn -0.1341217905 0.6861364245 -0.7150021791
v 0.2910898328 0.08796727657 0.1077177525
vn 0.1043997929 0.994489789 0.009527819231
v -0.1472432315 0.1406821012 0.03924627602
vn 0.01998331957 0.9669401646 0.2542192042
v 0.8565784693 -0.2007506192 0.0895691067
vn -0.2496883571 -0.8414697051 0.479149729
v 0.5042146444 -0.0001239853445 0.2977823019
vn -0.05616824701 0.6854548454 0.7259454727
v 0.4476944208 0.02346739918 0.1746829003
vn -0.05779194832 -0.969953239 -0.236327827
v -0.5350189209 -0.07136105001 -0.2867159247
vn -0.1846509576 -0.9683393836 -0.1679966599
v 0.6268296242 -0.03936106339 0.3198614717
vn 0.02239582129 0.5418430567 0.8401812315
v 0.471242547 -0.0266950801 0.3005798459
vn -0.1591894031 -0.9729638696 0.1673322916
v 0.2888278663 -0.1095544845 -0.1262042969
vn 0.2099215537 -0.1061226353 -0.9719418287
v -0.9184322357 0.0499897562 -0.26620996
vn 0.01721275598 -0.6597893238 0.7512534857
v 0.2739382684 0.07632321119 0.1653622389
vn -0.02606116794 0.8972912431 0.44066903
v 0.1118854582 -0.05913228542 -0.1682597548
vn 0.2232947052 0.0006106212386 -0.9747508168
v -0.5693637729 0.1661596596 -0.004976365715
vn -0.04089781642 0.8868575692 0.4602293074
v 0.1581137776 0.07285267115 -0.06970342994
vn 0.1814543456 0.8762980103 -0.4462914765
v 0.444312036 -0.1284980774 -0.04212647676
vn -0.2898189127 -0.1650426239 0.9427438378
v 0.9087933898 -0.1837242693 0.1193344146
vn 0.7850835919 -0.261439234 -0.5615098476
v 0.2678110003 -0.1124275327 -0.08235868067
vn -0.2336911708 -0.2104105502 0.9492712021
v 0.6468852758 0.04067696631 0.1253625751
vn 0.2117728889 0.9265664816 -0.3108484745
v -0.4306656122 0.1150462925 -0.2308181822
vn 0.1546286941 0.7659983635 -0.6239683032
v -0.5650935173 0.09609912336 0.05607384443
vn -0.1423274726 -0.9100446105 0.3893092275
v 0.1960317492 0.03966825828 -0.1199165285
vn 0.2159538418 0.8114013672 -0.5431314707
v 0.2925803065 -0.158565715 -0.1183762327
vn 0.198346585 -0.2833701074 -0.9382750392
v -0.8212652206 0.1506758332 -0.1857950389
vn -0.03679670766 -0.9554777145 0.2927597761
v 0.5740528703 0.0002070488408 0.03754992783
vn 0.353910774 0.6806967854 -0.6414039731
v -0.1914697587 -0.1254129857 -0.2129043192
vn -0.3328670561 -0.4260817766 0.8412216306
v -0.2821404636 -0.1214651838 -0.2389879823
vn -0.2595075667 -0.5386627316 0.8015599251
v 0.4579071701 -0.005266464315 0.2456115335
vn -0.01139920019 -0.924346745 -0.3813831508
v 0.8023263216 0.008251039311 0.2288896441
vn 0.2339268476 0.8935802579 0.3831351995
v 0.5865249038 -0.1108977869 -0.03853216022
vn 0.3634298444 0.2695073187 -0.8917872906
v -0.6117655635 -0.009046185762 -0.3151556253
vn 0.1283056289 -0.02027606405 -0.9915273786
v -0.620100975 0.07583878189 -0.3048935831
vn 0.1321841478 0.3484663069 -0.9279539585
v -0.7105676532 0.1249288917 -0.02208279073
vn 0.06075202674 -0.8266611099 -0.5594109297
v 0.1047784984 0.06292876601 0.02400078624
vn -0.07384511083 -0.9926605821 0.09577000886
v 0.3548336029 0.0552101545 -0.007923463359
vn 0.1992556006 0.9335998297 -0.2978062034
v 0.6275866032 -0.006357989274 0.2566216588
vn -0.09824747592 -0.9698538184 -0.2230043709
v -0.2751698792 0.08447261155 0.06058809534
vn -0.04606433213 -0.9334965944 -0.3556152582
v -0.4158012867 0.126971826 -0.1063147038
vn -0.1110331938 -0.9698137045 0.2171014547
v 0.8437767029 -0.04462842643 0.262955904
vn -0.2757695913 -0.9571399689 -0.08851116151
v -0.6228559017 0.119654499 -0.1835589409
vn -0.1175442934 -0.9320254326 0.3428001404
v -0.5240365267 0.1142935604 0.007956142537
vn -0.006382239982 -0.9264613986 -0.3763357401
v 0.8767310381 -0.1415941864 0.1313045174
vn -0.5342975855 -0.4114673138 0.7383906841
v -0.9511684179 0.1537112594 -0.1661705971
vn -0.541190207 0.7323371172 0.413274169
v -0.3914073706 0.1507671475 -0.1591682136
vn 0.1560609341 0.9427568913 -0.2947107255
v 0.2978504598 0.0092095742 0.2042847127
vn -0.02414833009 -0.946205616 -0.3226636648
v 0.7683302164 -0.07265135646 0.03832479566
vn 0.4107758403 0.4131691754 -0.8127449751
v -0.751922965 0.1486175656 -0.06751410663
vn 0.01542788278 -0.9547737837 -0.2969326973
v 0.07107229531 0.04670807719 0.1222960353
vn -0.01140528545 -0.9760649204 -0.2171799988
v 0.7243146896 0.0374356471 0.1765143275
vn 0.200134933 0.97856462 0.04855197296
v -0.1329656839 0.0549094677 0.1575750411
vn -0.2927323282 -0.4257638156 0.8561734557
v -0.4882137477 0.1049345583 -0.1894606948
vn -0.1499245912 -0.7948210835 0.5880323648
v -0.3326598406 0.1507623196 0.02022142522
vn -0.001852608402 0.8943248987 0.4474143386
v -0.2089108229 0.1032508612 0.1026370227
vn -0.1044249758 0.7635285854 0.6372750998
v 0.08733431995 0.02337440848 0.1894988418
vn -0.05784491822 -0.9700408578 -0.2359549552
v -0.1061594933 0.05615128949 0.1081102788
vn -0.08228112757 -0.9662565589 -0.2440861613
v -0.5596220493 0.1903649271 -0.08559223264
vn 0.09440118074 0.9915190339 0.08932232857
v -0.6228510141 0.2029349208 -0.1247743741
vn 0.1145156696 0.9903594255 -0.07793794572
v 0.05058050528 0.04107306898 -0.0654380098
vn -0.1834642738 -0.8458220363 0.5009250641
v 0.8811483979 -0.05492347479 0.2937800884
vn 0.3282507658 0.7056415081 0.6279501915
v 0.08326147497 0.02773584612 0.2070918381
vn -0.1605370343 0.2496419549 0.9549381137
v -0.3668395579 0.1660155058 -0.07677178085
vn 0.1080589741 0.9935860038 -0.03331896663
v 0.7358920574 -0.1628497839 0.0523016192
vn -0.3560906649 -0.3242041767 0.8764080405
v 0.8089522123 -0.0475605987 0.18395859
vn -0.2874003053 -0.8862596154 0.3632422984
v 0.7694280148 -0.02481934056 0.3016029596
vn 0.1442387849 0.7648987174 0.6277938485
v -0.7184417248 0.1920614541 -0.09637990594
vn -0.1059597358 0.9261238575 0.3620319664
v -0.6407322288 0.01349906996 -0.2785379887
vn -0.1574962586 -0.3759060502 0.9131755233
v -0.6447728872 0.07694926858 -0.2495395839
vn -0.14520365 -0.5962357521 0.7895687819
v 0.958266139 -0.06950102001 0.2641038299
vn 0.5527067184 0.7520589232 0.3590579629
v 0.03977501392 -0.02025864646 -0.1202565432
vn -0.2394944131 -0.4445310533 0.8631538749
v 0.733068943 -0.2006628811 0.03405185044
vn -0.2370110899 -0.7214818597 0.6506071091
v 0.05103304237 -0.1640951186 -0.1358218491
vn -0.2211292386 -0.3527943492 0.9091963172
v 0.5697607994 -0.1609488875 -0.005829496309
vn -0.3242976665 -0.2312846631 0.9172450304
v -0.3771098852 -0.04153640941 -0.2397046983
vn -0.2280280143 -0.261762619 0.937807858
v 0.7363507152 -0.03357832134 0.2897121906
vn -0.1612857133 -0.9222619534 -0.3513115048
v -0.8111354113 0.04474435002 -0.2867655158
vn -0.03146930039 -0.4688563943 0.8827136159
v -0.985014379 0.1037630588 -0.2132132649
vn -0.500931859 -0.7416159511 0.4461760223
v -0.9169914722 0.06592778862 -0.2837721705
vn -0.5502099991 -0.03384035826 -0.8343403339
v -0.4055894613 0.08629511297 0.08349837363
vn -0.2322939187 -0.01853981055 0.9724689126
v 0.48311764 0.01728297956 0.1154642776
vn -0.1983674616 -0.9681183696 0.1529612541
v -0.1300689131 0.09755378962 -0.03900708258
vn -0.1945667863 -0.9645037055 0.178539589
v -0.4903387129 0.1221451834 0.05105930194
vn -0.04597007856 0.6873819828 0.7248398066
v -0.71794945 0.108677648 -0.004803970456
vn -0.07209197432 -0.9820631146 -0.1742263287
v 0.7662798166 -0.09360679984 0.0914631635
vn -0.3730848432 -0.5961254239 0.710944593
v -0.2685987353 0.06192649901 0.1180753335
vn -0.2275024801 -0.908809185 0.3497263491
v 0.9811701179 -0.1107354462 0.2617880702
vn 0.6089763641 -0.2837680876 0.7406912446
v -0.7533075809 0.1764667332 -0.2365995646
vn 0.06862340122 0.8348016739 -0.5462572575
v 0.7100270987 -0.01936533116 0.2115627229
vn -0.2083842158 -0.9724782109 0.1042218283
v -0.2348772138 0.0943466872 -0.109277457
vn -0.2518432736 -0.8719930649 0.4197654724
v -0.6298266649 0.1251571178 0.03001279011
vn -0.2152281553 0.5602548122 0.799869597
v -0.05133325979 -0.1460105777 -0.1551101506
vn -0.3329226375 -0.3185850382 0.8875055313
v -0.3927550912 0.03239708394 -0.2280071974
vn -0.1988558024 -0.4270944893 0.8820695281
v -0.2510750294 0.01104311086 -0.1981205046
vn -0.2679198682 -0.3676057458 0.8905531764
v 0.8829866052 -0.08586946875 0.3028922677
vn -0.2586421072 -0.9565793276 -0.1343884766
v -0.7550827861 0.1181837171 -0.2998829186
vn 0.04638592526 0.5542411804 -0.8310626149
v -0.8103150129 0.118793197 -0.2481428981
vn -0.07927134633 -0.7304286957 0.6783730388
v -0.4942323565 -0.02113091387 -0.2576605678
vn -0.2046690285 -0.2947638929 0.9333942533
v 0.08313897252 -0.1574662328 -0.1606253237
vn 0.1758886129 -0.3852880597 -0.9058787823
v -0.1970881075 -0.0524404943 -0.2407433838
vn 0.2288133651 -0.02703197673 -0.9730949402
v 0.8998811245 -0.1406731457 0.1091546267
vn 0.6582797766 0.2025130689 -0.7250214815
v 0.9623669386 -0.1517903805 0.2111720741
vn -0.05322369933 -0.826169908 0.5609015226
v -0.007867407054 0.07106606662 0.170284003
vn -0.08608910441 0.6924842596 0.7162780166
v -0.9409641027 0.1374377012 -0.1853018552
vn 0.2837666869 -0.948127389 0.1432862282
v -0.2740005851 -0.09135727584 -0.2522988021
vn 0.1654120833 -0.2412749976 -0.9562558532
v -0.01278544962 0.1246360838 0.101547271
vn 0.04348792881 0.9273049831 0.3717718124
v -0.7368165255 0.1524672508 -0.1282615811
vn -0.08970942348 -0.9898027182 0.1106472164
v -0.8747831583 0.1515373737 -0.1253483891
vn 0.1387715936 -0.9810664654 -0.1350963265
v -0.02640011162 -0.1274622977 -0.1922933161
vn 0.2084273845 -0.1775682271 -0.9617835283
v -0.9081697464 0.122452341 -0.2263117284
vn 0.1705237627 -0.6619773507 0.7298682332
v 0.5935772657 0.03069762699 0.2546590269
vn 0.08226301521 0.8491812944 0.5216549635
v -0.09575317055 -0.141614601 -0.1980287582
vn 0.08595796674 -0.6446152329 -0.7596594095
v 0.222504735 0.01149730384 0.2354248762
vn -0.2134103179 -0.162023887 0.9634336233
v 0.780402422 -0.05953091383 0.3287949264
vn 0.02375269495 -0.5325539708 0.8460627198
v -0.1660623848 0.1389084756 -0.08982117474
vn 0.1810079217 0.9336832166 -0.3089850247
v -0.2283917814 0.1113655269 -0.01027094014
vn -0.1032171249 -0.9742230773 -0.2005882859
v 0.2247632444 0.05812465027 0.09083586186
vn -0.0683767274 -0.9866422415 -0.1478570849
v 0.1424455196 0.05927053839 0.188639313
vn 0.0157650914 0.8488796353 0.5283510089
v 0.2589024901 -0.1848874986 -0.1121704504
vn -0.2326219976 -0.6729896069 0.7021196485
v -0.5010275245 0.135973528 -0.04740772769
vn -0.06155730039 -0.9930483103 -0.1003283039
v -0.8517351747 0.006323529407 -0.3118447661
vn -0.4191117883 -0.7421647906 -0.5230073333
v -0.02689149976 0.06959892809 0.007567896973
vn -0.1635361612 -0.9846935272 0.06028763205
v -0.8268299699 0.13061589 -0.04724024981
vn -0.5363255143 0.04212149233 0.8429595232
v 0.1288432181 0.110109821 0.06294754148
vn 0.146930337 0.9863317609 0.07457300276
v 0.3679706454 -0.1987573951 -0.08266981691
vn -0.2087004185 -0.9108031988 0.3562044799
v 0.6319952607 -0.03866058961 0.300929755
vn -0.03340762109 -0.8973128796 -0.4401289523
v -0.7196496725 0.1517627984 -0.02592008188
vn -0.1991901398 0.7974976897 0.5694916248
v -0.01480904687 0.08530242741 -0.1141064167
vn 0.2334338576 0.8514946103 -0.469537586
v -0.1056457758 0.139870435 -0.007431042381
vn 0.1160962656 0.9919189215 -0.05117082223
v 0.7164469957 -0.1968446076 0.007519839797
vn 0.3359256685 -0.5133280754 -0.7897140384
v 0.1411518157 -0.07999242842 -0.1090702862
vn -0.2277011275 -0.1224984452 0.9659950137
v 0.8348330259 -0.1623912454 0.05364334583
vn 0.4907248616 -0.01665345021 -0.8711554408
v 0.467517674 0.02738271467 0.003998802975
vn 0.3072904348 0.8044643998 -0.5083400607
v 0.5756049156 -0.206298843 -0.03953901678
vn 0.2817256451 -0.2876002789 -0.9153779149
v 0.6940073967 0.007505331188 0.2696151733
vn 0.1070783511 0.8853842616 0.4523592889
# mm_gid 0
g mmGroup0
f 102//102 52//52 101//101 
f 165//165 51//51 171//171 
f 165//165 61//61 51//51 
f 83//83 169//169 107//107 
f 110//110 52//52 176//176 
f 164//164 128//128 55//55 
f 109//109 99//99 103//103 
f 109//109 150//150 99//99 
f 103//103 104//104 97//97 
f 106//106 32//32 114//114 
f 103//103 99//99 104//104 
f 163//163 87//87 129//129 
f 167//167 87//87 163//163 
f 101//101 52//52 110//110 
f 133//133 102//102 127//127 
f 133//133 86//86 104//104 
f 133//133 99//99 102//102 
f 154//154 89//89 167//167 
f 94//94 164//164 55//55 
f 4//4 51//51 3//3 
f 3//3 51//51 61//61 
f 48//48 118//118 107//107 
f 27//27 110//110 105//105 
f 45//45 68//68 51//51 
f 45//45 51//51 4//4 
f 14//14 111//111 132//132 
f 32//32 135//135 13//13 
f 81//81 80//80 11//11 
f 81//81 11//11 143//143 
f 116//116 124//124 115//115 
f 36//36 23//23 25//25 
f 132//132 91//91 35//35 
f 112//112 132//132 35//35 
f 91//91 149//149 41//41 
f 142//142 26//26 41//41 
f 142//142 41//41 134//134 
f 88//88 26//26 142//142 
f 167//167 89//89 87//87 
f 182//182 78//78 98//98 
f 42//42 136//136 128//128 
f 144//144 116//116 89//89 
f 73//73 144//144 89//89 
f 73//73 89//89 154//154 
f 83//83 107//107 37//37 
f 83//83 37//37 164//164 
f 20//20 118//118 48//48 
f 118//118 178//178 31//31 
f 44//44 118//118 31//31 
f 7//7 141//141 48//48 
f 48//48 141//141 20//20 
f 78//78 113//113 108//108 
f 88//88 123//123 136//136 
f 136//136 112//112 88//88 
f 161//161 108//108 113//113 
f 142//142 123//123 88//88 
f 96//96 155//155 154//154 
f 96//96 170//170 155//155 
f 161//161 123//123 142//142 
f 134//134 41//41 149//149 
f 149//149 39//39 134//134 
f 117//117 134//134 39//39 
f 92//92 13//13 12//12 
f 92//92 12//12 125//125 
f 125//125 12//12 126//126 
f 14//14 65//65 121//121 
f 115//115 145//145 140//140 
f 116//116 115//115 140//140 
f 42//42 14//14 132//132 
f 100//100 116//116 140//140 
f 123//123 85//85 136//136 
f 85//85 128//128 136//136 
f 96//96 154//154 167//167 
f 90//90 96//96 167//167 
f 5//5 177//177 119//119 
f 111//111 121//121 5//5 
f 111//111 5//5 119//119 
f 111//111 14//14 121//121 
f 5//5 121//121 65//65 
f 122//122 145//145 30//30 
f 120//120 178//178 20//20 
f 67//67 178//178 120//120 
f 21//21 122//122 76//76 
f 20//20 75//75 139//139 
f 20//20 21//21 75//75 
f 67//67 120//120 28//28 
f 97//97 169//169 83//83 
f 104//104 169//169 97//97 
f 87//87 89//89 100//100 
f 31//31 65//65 14//14 
f 44//44 31//31 14//14 
f 122//122 140//140 145//145 
f 37//37 42//42 128//128 
f 164//164 37//37 128//128 
f 137//137 7//7 48//48 
f 160//160 94//94 29//29 
f 127//127 90//90 86//86 
f 29//29 94//94 77//77 
f 58//58 29//29 77//77 
f 29//29 54//54 49//49 
f 130//130 63//63 138//138 
f 70//70 131//131 90//90 
f 7//7 140//140 141//141 
f 166//166 67//67 28//28 
f 131//131 82//82 90//90 
f 131//131 70//70 138//138 
f 170//170 131//131 138//138 
f 170//170 138//138 174//174 
f 161//161 173//173 123//123 
f 57//57 173//173 161//161 
f 113//113 182//182 57//57 
f 161//161 113//113 57//57 
f 131//131 96//96 82//82 
f 136//136 42//42 112//112 
f 108//108 117//117 22//22 
f 117//117 108//108 134//134 
f 142//142 134//134 108//108 
f 20//20 139//139 120//120 
f 22//22 39//39 23//23 
f 117//117 39//39 22//22 
f 39//39 66//66 148//148 
f 39//39 149//149 66//66 
f 39//39 148//148 25//25 
f 157//157 124//124 144//144 
f 50//50 135//135 143//143 
f 143//143 1//1 50//50 
f 120//120 159//159 146//146 
f 139//139 159//159 120//120 
f 92//92 46//46 13//13 
f 155//155 73//73 154//154 
f 146//146 156//156 62//62 
f 146//146 159//159 156//156 
f 59//59 146//146 62//62 
f 72//72 146//146 59//59 
f 72//72 28//28 146//146 
f 75//75 159//159 139//139 
f 89//89 116//116 100//100 
f 2//2 125//125 151//151 
f 125//125 2//2 92//92 
f 151//151 125//125 157//157 
f 151//151 155//155 2//2 
f 147//147 159//159 152//152 
f 159//159 147//147 156//156 
f 32//32 13//13 46//46 
f 152//152 159//159 75//75 
f 75//75 21//21 76//76 
f 172//172 166//166 72//72 
f 152//152 75//75 76//76 
f 172//172 72//72 47//47 
f 67//67 172//172 5//5 
f 5//5 65//65 67//67 
f 152//152 76//76 30//30 
f 152//152 30//30 24//24 
f 122//122 30//30 76//76 
f 58//58 54//54 29//29 
f 43//43 24//24 30//30 
f 181//181 172//172 47//47 
f 172//172 181//181 5//5 
f 181//181 47//47 40//40 
f 131//131 170//170 96//96 
f 45//45 98//98 68//68 
f 182//182 98//98 45//45 
f 100//100 140//140 7//7 
f 114//114 32//32 46//46 
f 53//53 119//119 177//177 
f 111//111 119//119 53//53 
f 60//60 168//168 124//124 
f 126//126 168//168 60//60 
f 157//157 60//60 124//124 
f 158//158 57//57 182//182 
f 114//114 105//105 106//106 
f 114//114 63//63 105//105 
f 82//82 96//96 90//90 
f 63//63 114//114 174//174 
f 138//138 63//63 174//174 
f 85//85 77//77 55//55 
f 3//3 158//158 45//45 
f 54//54 3//3 49//49 
f 63//63 27//27 105//105 
f 91//91 53//53 149//149 
f 149//149 53//53 66//66 
f 3//3 61//61 49//49 
f 133//133 127//127 86//86 
f 157//157 144//144 73//73 
f 13//13 135//135 50//50 
f 49//49 61//61 165//165 
f 129//129 137//137 169//169 
f 109//109 165//165 150//150 
f 99//99 133//133 104//104 
f 99//99 150//150 102//102 
f 165//165 153//153 150//150 
f 124//124 19//19 115//115 
f 151//151 157//157 73//73 
f 73//73 155//155 151//151 
f 169//169 48//48 107//107 
f 137//137 48//48 169//169 
f 55//55 128//128 85//85 
f 102//102 153//153 52//52 
f 77//77 94//94 55//55 
f 176//176 162//162 93//93 
f 93//93 110//110 176//176 
f 86//86 167//167 163//163 
f 86//86 90//90 167//167 
f 103//103 164//164 94//94 
f 41//41 35//35 91//91 
f 160//160 49//49 165//165 
f 109//109 103//103 160//160 
f 160//160 165//165 109//109 
f 160//160 103//103 94//94 
f 34//34 84//84 64//64 
f 34//34 171//171 84//84 
f 162//162 175//175 8//8 
f 162//162 34//34 175//175 
f 104//104 86//86 163//163 
f 1//1 11//11 168//168 
f 126//126 1//1 168//168 
f 11//11 19//19 168//168 
f 124//124 168//168 19//19 
f 176//176 34//34 162//162 
f 169//169 163//163 129//129 
f 104//104 163//163 169//169 
f 176//176 171//171 34//34 
f 153//153 171//171 176//176 
f 91//91 111//111 53//53 
f 68//68 23//23 36//36 
f 68//68 98//98 23//23 
f 177//177 16//16 179//179 
f 135//135 32//32 17//17 
f 1//1 143//143 11//11 
f 144//144 124//124 116//116 
f 31//31 178//178 67//67 
f 36//36 25//25 95//95 
f 179//179 95//95 148//148 
f 25//25 148//148 95//95 
f 91//91 132//132 111//111 
f 42//42 132//132 112//112 
f 84//84 68//68 180//180 
f 79//79 181//181 40//40 
f 113//113 78//78 182//182 
f 79//79 16//16 181//181 
f 16//16 177//177 181//181 
f 5//5 181//181 177//177 
f 143//143 10//10 81//81 
f 135//135 10//10 143//143 
f 88//88 112//112 35//35 
f 35//35 26//26 88//88 
f 26//26 35//35 41//41 
f 108//108 22//22 78//78 
f 153//153 102//102 150//150 
f 93//93 69//69 17//17 
f 68//68 74//74 180//180 
f 51//51 68//68 84//84 
f 105//105 110//110 93//93 
f 38//38 80//80 81//81 
f 43//43 80//80 38//38 
f 170//170 174//174 46//46 
f 127//127 101//101 130//130 
f 102//102 101//101 127//127 
f 164//164 97//97 83//83 
f 51//51 84//84 171//171 
f 28//28 72//72 166//166 
f 67//67 166//166 172//172 
f 54//54 158//158 3//3 
f 158//158 54//54 57//57 
f 80//80 56//56 19//19 
f 56//56 80//80 43//43 
f 74//74 6//6 79//79 
f 29//29 49//49 160//160 
f 95//95 16//16 79//79 
f 6//6 36//36 95//95 
f 98//98 22//22 23//23 
f 78//78 22//22 98//98 
f 148//148 66//66 179//179 
f 179//179 53//53 177//177 
f 53//53 179//179 66//66 
f 33//33 79//79 18//18 
f 33//33 74//74 79//79 
f 180//180 74//74 33//33 
f 103//103 97//97 164//164 
f 34//34 64//64 175//175 
f 9//9 24//24 38//38 
f 9//9 38//38 69//69 
f 69//69 8//8 9//9 
f 58//58 77//77 173//173 
f 173//173 77//77 85//85 
f 58//58 173//173 57//57 
f 57//57 54//54 58//58 
f 24//24 43//43 38//38 
f 19//19 56//56 145//145 
f 145//145 115//115 19//19 
f 123//123 173//173 85//85 
f 84//84 33//33 71//71 
f 84//84 180//180 33//33 
f 72//72 59//59 18//18 
f 9//9 15//15 24//24 
f 93//93 8//8 69//69 
f 125//125 126//126 60//60 
f 12//12 1//1 126//126 
f 125//125 60//60 157//157 
f 108//108 161//161 142//142 
f 67//67 65//65 31//31 
f 74//74 36//36 6//6 
f 74//74 68//68 36//36 
f 93//93 162//162 8//8 
f 130//130 70//70 127//127 
f 71//71 33//33 15//15 
f 64//64 84//84 71//71 
f 174//174 114//114 46//46 
f 18//18 59//59 62//62 
f 141//141 21//21 20//20 
f 10//10 38//38 81//81 
f 10//10 69//69 38//38 
f 87//87 137//137 129//129 
f 17//17 10//10 135//135 
f 32//32 106//106 17//17 
f 87//87 100//100 7//7 
f 87//87 7//7 137//137 
f 95//95 179//179 16//16 
f 101//101 27//27 63//63 
f 130//130 101//101 63//63 
f 15//15 18//18 62//62 
f 70//70 90//90 127//127 
f 70//70 130//130 138//138 
f 62//62 147//147 15//15 
f 106//106 93//93 17//17 
f 105//105 93//93 106//106 
f 176//176 52//52 153//153 
f 40//40 18//18 79//79 
f 8//8 175//175 9//9 
f 47//47 72//72 18//18 
f 47//47 18//18 40//40 
f 37//37 107//107 44//44 
f 140//140 122//122 21//21 
f 21//21 141//141 140//140 
f 171//171 153//153 165//165 
f 33//33 18//18 15//15 
f 95//95 79//79 6//6 
f 175//175 15//15 9//9 
f 175//175 64//64 15//15 
f 11//11 80//80 19//19 
f 101//101 110//110 27//27 
f 62//62 156//156 147//147 
f 28//28 120//120 146//146 
f 12//12 50//50 1//1 
f 13//13 50//50 12//12 
f 170//170 92//92 2//2 
f 170//170 46//46 92//92 
f 170//170 2//2 155//155 
f 37//37 44//44 42//42 
f 56//56 43//43 30//30 
f 30//30 145//145 56//56 
f 158//158 182//182 45//45 
f 45//45 4//4 3//3 
f 17//17 69//69 10//10 
f 118//118 20//20 178//178 
f 64//64 71//71 15//15 
f 42//42 44//44 14//14 
f 118//118 44//44 107//107 
f 23//23 39//39 25//25 
f 24//24 147//147 152//152 
f 15//15 147//147 24//24 
